<?xml version="1.0" encoding="UTF-8" standalone="no"?>
<!DOCTYPE svg PUBLIC "-//W3C//DTD SVG 1.1//EN"
 "http://www.w3.org/Graphics/SVG/1.1/DTD/svg11.dtd">
<!-- Generated by graphviz version 2.40.1 (20161225.0304)
 -->
<!-- Title: G Pages: 1 -->
<svg width="252pt" height="44pt"
 viewBox="0.00 0.00 252.38 44.00" xmlns="http://www.w3.org/2000/svg" xmlns:xlink="http://www.w3.org/1999/xlink">
<g id="graph0" class="graph" transform="scale(1 1) rotate(0) translate(4 40)">
<title>G</title>
<polygon fill="#ffffff" stroke="transparent" points="-4,4 -4,-40 248.3783,-40 248.3783,4 -4,4"/>
<!-- /default_param_handler -->
<g id="node1" class="node">
<title>/default_param_handler</title>
<ellipse fill="#072c43" stroke="#000000" cx="122.1892" cy="-18" rx="122.3786" ry="18"/>
<text text-anchor="middle" x="122.1892" y="-14.3" font-family="sans-serif" font-size="14.00" fill="#a4c4bf">/default_param_handler</text>
</g>
</g>
</svg>
